FORECASTING US QUARTERLY HOUSING PRICES
…
Code

data<-read_csv('MSPUS.csv')
colnames(data)<-c("date","value")
data <- 
  data %>% 
  mutate(date = yearquarter(as.yearqtr(date,format = "%Y-%m-%d")))%>% 
  filter(date>ymd("1980-01-01")) %>% 
  select(date,value) %>% 
  as_tsibble()
attach(data)
print(data)

# A tsibble: 170 x 2 [1Q]
      date value
     <qtr> <dbl>
 1 1980 Q2 64000
 2 1980 Q3 64900
 3 1980 Q4 66400
 4 1981 Q1 66800
 5 1981 Q2 69400
 6 1981 Q3 69200
 7 1981 Q4 70400
 8 1982 Q1 66400
 9 1982 Q2 69600
10 1982 Q3 69300
# … with 160 more rows
…
